{
  "credentials": {
    "authorization": {
      "order": "LdED4uuNAMszq7QS",
      "merchant": "nfuAm2H9GyVXnXTR",
      "customer": "5m5BjSLrd36x9ssb"
    }
  },
  "api": {
    "order": "https://api.oioni.com/order",
    "merchant": "https://api.oioni.com/merchant",
    "customer": "https://api.oioni.com/customer"
  },
  "google": {
    "key": "AIzaSyA-nupxSHwZ1KYTAJGj9nPR-lS4bZ4WvB0"
  },
  "sub_domain": "",
  "widget_base_url": "https://widget.oioni.com"
}
