<svg width="8" height="14" viewBox="0 0 8 14" fill="none" xmlns="http://www.w3.org/2000/svg">
<path fill-rule="evenodd" clip-rule="evenodd" d="M0.764512 0.755984C1.10686 0.414243 1.66143 0.414735 2.00317 0.757085L6.96927 5.73203C6.96928 5.73204 6.96926 5.73202 6.96927 5.73203C7.67733 6.44125 7.67683 7.59011 6.96812 8.29866C6.96811 8.29867 6.96813 8.29864 6.96812 8.29866L1.99516 13.2711C1.65309 13.6131 1.09853 13.6131 0.756501 13.271C0.414474 12.929 0.414504 12.3744 0.756567 12.0324L5.72955 7.05991C5.75444 7.03503 5.75452 6.99463 5.7296 6.96967L0.76341 1.99464C0.421669 1.65229 0.422162 1.09772 0.764512 0.755984Z" fill="#AAAAAA"/>
</svg>
